{
  "code": "corals-ecommerce",
  "name": "Ecommerce Manager",
  "author": "Corals",
  "type": "module",
  "description": "Manage Subscriptions, products, plans...",
  "namespace": "Corals\\Modules\\Ecommerce",
  "provider": "EcommerceServiceProvider",
  "version": "3.3.2",
  "load_order": "601",
  "folder": "Ecommerce",
  "autoload": "psr-4",
  "icon": "fa fa-shopping-cart",
  "require": {
    "corals-foundation": "^4.0",
    "corals-payment": "^1.7.2",
    "corals-user": "^1.3.1",
    "corals-settings": "^2.2.3",
    "corals-cms": "^1.4.3",
    "corals-utility": "^1.0"
  },
  "platform": "Ecommerce",
  "supported_platforms": []
}
