3.4
add route missing api version
------------------------------------
3.3
===================================
Update Guzzle to latest versions


3.1
Add platform to module.json for laraship installer
------------------------------------
3.0
Laravel 6 Upgrade
------------------------------------

2.2
------------------------------
Support Payment Intents for SCA


2.0
- currencies api
- invoices api
- payment settings api
---------------------------------
1.9.2
Add Permission Currency
---------------------------------
1.9.1
---------------------------------
Make Sourcable field under transaction nullable


1.8
----------------------------------
Add Properties column to invoices

1.7.4
- add Pay Invoice action
----------------------------------
1.7.3
- fix invoice show policy
----------------------------------
1.7.2
- add invoice ModelUniqueCode trait
- add terms column to Invoice
----------------------------------
1.7.1
Add Admin Permission
---------------------------
1.5
- Upgrade Paypal Webooks + Add Reprocess
------------------------------------------
1.3.6
- enhancements for new admin theme
------------------------------------------
1.3.5
- add currency management
-----------------------------------------------------
1.3.4
- fix \Payments::currency_convert() function
-----------------------------------------------------
1.3.3
- add translation feature and enhance breadcrumbs
- add formatStatusAsLabels helper
-----------------------------------------------------
- add Payment category for related settings
