{
  "type": "frontend",
  "name": "corals-express",
  "extends": null,
  "caption": "Corals Express",
  "version": "1.6",
  "assetPath": "assets\/themes\/express",
  "css": [
    "css/bootstrap.css",
    "css/theme.min.css"
  ],
  "js": [
    "js/theme.min.js"
  ],
  "platform": "Subscription"
}